<?xml version="1.0" encoding="UTF-8" standalone="no"?>
<svg
   height="16px"
   viewBox="0 0 16 16"
   width="16px"
   version="1.1"
   id="svg314"
   sodipodi:docname="minimize-symbolic.svg"
   inkscape:version="1.2 (dc2aedaf03, 2022-05-15)"
   xmlns:inkscape="http://www.inkscape.org/namespaces/inkscape"
   xmlns:sodipodi="http://sodipodi.sourceforge.net/DTD/sodipodi-0.dtd"
   xmlns="http://www.w3.org/2000/svg"
   xmlns:svg="http://www.w3.org/2000/svg">
  <defs
     id="defs318" />
  <sodipodi:namedview
     id="namedview316"
     pagecolor="#ffffff"
     bordercolor="#666666"
     borderopacity="1.0"
     inkscape:showpageshadow="2"
     inkscape:pageopacity="0.0"
     inkscape:pagecheckerboard="0"
     inkscape:deskcolor="#d1d1d1"
     showgrid="false"
     inkscape:zoom="14.75"
     inkscape:cx="8"
     inkscape:cy="8"
     inkscape:window-width="1920"
     inkscape:window-height="1131"
     inkscape:window-x="0"
     inkscape:window-y="0"
     inkscape:window-maximized="1"
     inkscape:current-layer="svg314" />
  <g
     fill="#474747"
     id="g532"
     transform="translate(0.003906,-4.7110035)">
    <path
       d="M 3.703125,5.292969 2.289062,6.707031 7.996094,12.414062 13.703125,6.707031 12.289062,5.292969 7.996094,9.585938 Z m 0,0"
       id="path526" />
    <path
       d="M 2.996094,6 V 5 h -1 v 1 z m 11,0 V 5 h -1 v 1 z m 0,0"
       id="path528" />
    <path
       d="m 13.996094,6 c 0,-0.554688 -0.445313,-1 -1,-1 -0.550782,0 -1,0.445312 -1,1 0,0.554688 0.449218,1 1,1 0.554687,0 1,-0.445312 1,-1 z m -10,0 c 0,-0.554688 -0.445313,-1 -1,-1 -0.550782,0 -1,0.445312 -1,1 0,0.554688 0.449218,1 1,1 0.554687,0 1,-0.445312 1,-1 z m 0,0"
       id="path530" />
  </g>
  <g
     fill="#474747"
     id="g594"
     transform="translate(0.003906,3.796156)">
    <path
       d="M 3.703125,11.710938 2.289062,10.296875 7.996094,4.589844 13.703125,10.296875 12.289062,11.710938 7.996094,7.417969 Z m 0,0"
       id="path588" />
    <path
       d="m 2.996094,11.003906 v 1 h -1 v -1 z m 11,0 v 1 h -1 v -1 z m 0,0"
       id="path590" />
    <path
       d="m 13.996094,11.003906 c 0,0.550782 -0.445313,1 -1,1 -0.550782,0 -1,-0.449218 -1,-1 0,-0.554687 0.449218,-1 1,-1 0.554687,0 1,0.445313 1,1 z m -10,0 c 0,0.550782 -0.445313,1 -1,1 -0.550782,0 -1,-0.449218 -1,-1 0,-0.554687 0.449218,-1 1,-1 0.554687,0 1,0.445313 1,1 z m 0,0"
       id="path592" />
  </g>
</svg>
